Final Project
…
water_df %>% count()

## # A tibble: 1 x 1
##        n
##    <int>
## 1 163574

Below you can see that all samples are taken on the first day of every month for 5 years (There are 60 distinct dates and 60 / 12 = 5).

water_df %>%
  group_by(the_date) %>%
  summarize(samples = n())

## # A tibble: 60 x 2
##    the_date            samples
##    <dttm>                <int>
##  1 2008-07-01 00:00:00    2701
##  2 2008-08-01 00:00:00    2667
##  3 2008-09-01 00:00:00    2707
##  4 2008-10-01 00:00:00    2678
##  5 2008-11-01 00:00:00    2686
##  6 2008-12-01 00:00:00    2720
##  7 2009-01-01 00:00:00    2742
##  8 2009-02-01 00:00:00    2746
##  9 2009-03-01 00:00:00    2778
## 10 2009-04-01 00:00:00    2756
## #  with 50 more rows
…
Station ID

Data Type: Nominal Categorical

The unique identifier of the station. There are a total of 272 stations.

water_df %>%
  group_by(`Station ID`) %>%
  summarize(samples = n()) %>%
  arrange(desc(samples))

## # A tibble: 272 x 2
##    `Station ID` samples
##    <chr>          <int>
##  1 MD0000311        780
##  2 MD0021687        780
##  3 MD0001775        768
##  4 MD0001422        756
##  5 MD0003221        660
##  6 MD0020001        660
##  7 MD0020010        660
##  8 MD0020052        660
##  9 MD0020095        660
## 10 MD0020168        660
## #  with 262 more rows

County

Data Type: Nominal Categorical

The county in Maryland that the station is located in.

You can see below the number of samples in the data for each county. There are some listed as unspecified that might need to be filtered out.

water_df %>%
  group_by(`County`) %>%
  summarize(samples = n()) %>%
  arrange(desc(samples))

## # A tibble: 24 x 2
##    County          samples
##    <chr>             <int>
##  1 FREDERICK         19994
##  2 CECIL             15488
##  3 ANNE ARUNDEL      13888
##  4 WASHINGTON        12820
##  5 CARROLL            9362
##  6 CHARLES            9209
##  7 GARRETT            9100
##  8 ALLEGANY           8362
##  9 BALTIMORE          7130
## 10 PRINCE GEORGE'S    6080
## #  with 14 more rows
…
These samples look all exactly the same except for the station ID and activity ID. (Based on some attributes not shown.) We will see later that the outfall stations are again troublemakers.

I now believe the activity ID may be related to the station ID. Below I find the number of unique activity IDs each station uses.

water_df %>%
  group_by(`Station ID`) %>%
  summarize(num_unique = n_distinct(`Activity ID`))

## # A tibble: 272 x 2
##    `Station ID`          num_unique
##    <chr>                      <int>
##  1 MD0000311                     60
##  2 MD0000469                     60
##  3 MD0001201                     60
##  4 MD0001384                     60
##  5 MD0001422                     60
##  6 MD0001775                     60
##  7 MD0003158-OUTFALL 007         60
##  8 MD0003158-OUTFALL 010         61
##  9 MD0003158-OUTFALL 021         60
## 10 MD0003158-OUTFALL 025         60
## #  with 262 more rows

I know where I have seen 60 before! Recall this is the total number of unique sampling dates. There are some anomalies such as 36 or 61 unique activity IDs. (From data not shown.)

Just to make sure, I find the number of activity IDs used by stations in 2009 below. I am expecting each station to use 12 activity IDs in a year.

water_df %>%
  filter(year(the_date) == 2009) %>%
  group_by(`Station ID`) %>%
  summarize(num_unique = n_distinct(`Activity ID`))

## # A tibble: 270 x 2
##    `Station ID`          num_unique
##    <chr>                      <int>
##  1 MD0000311                     12
##  2 MD0000469                     12
##  3 MD0001201                     12
##  4 MD0001384                     12
##  5 MD0001422                     12
##  6 MD0001775                     12
##  7 MD0003158-OUTFALL 007         12
##  8 MD0003158-OUTFALL 010         12
##  9 MD0003158-OUTFALL 021         12
## 10 MD0003158-OUTFALL 025         12
## #  with 260 more rows
…
https://echo.epa.gov/tools/data-downloads/icis-npdes-dmr-and-limit-data-set

Location 1

Data Type: Geolocation

After reviewing a few latitude + longitude coordinates on maps, I am fairly certain that this is the location of the station itself (rather than where the sample of the body of water was taken).

Below is a few examples of the format. Parsing will be needed.

water_df %>%
  group_by(`Location 1`) %>%
  summarize(samples = n())

## # A tibble: 266 x 2
##    `Location 1`                        samples
##    <chr>                                 <int>
##  1 "MARYLAND\n(37.966389, -76.018333)"     660
##  2 "MARYLAND\n(37.970278, -75.858333)"     660
##  3 "MARYLAND\n(37.989167, -76.041389)"     660
##  4 "MARYLAND\n(38.0625, -76.3325)"         630
##  5 "MARYLAND\n(38.083333, -75.583333)"     610
##  6 "MARYLAND\n(38.09, -75.42)"             660
##  7 "MARYLAND\n(38.094167, -75.799444)"     660
##  8 "MARYLAND\n(38.1008, -75.73)"            54
##  9 "MARYLAND\n(38.149722, -76.439167)"     660
## 10 "MARYLAND\n(38.158333, -75.838333)"     660
## #  with 256 more rows

Counties

Datatype: Discrete Numerical

This column was not included/listed in the metadata. The name is vague. Without context, I cannot deduce what this attribute is for.

Regardless, I will at least attempt a guess. Counties seems to have something to do with County. The table below counts the number of samples for each County and Counties pair.

water_df %>%
  group_by(County, Counties) %>%
  summarize(samples = n())

## # A tibble: 53 x 3
## # Groups:   County [24]
##    County       Counties samples
##    <chr>           <dbl>   <int>
##  1 ALLEGANY          417    7516
##  2 ALLEGANY         2806      90
##  3 ALLEGANY         2862     756
##  4 ANNE ARUNDEL      418   13228
##  5 ANNE ARUNDEL     1815     660
##  6 BALTIMORE         421     660
##  7 BALTIMORE        1763    5030
##  8 BALTIMORE        1857    1440
##  9 CALVERT          1764    1270
## 10 CALVERT          2656     660
## #  with 43 more rows
…
But if my end goal is to get the mean itself, then I can drop these rows! (Since the whole point of imputing the mean is to have the mean stay the same.)

The trickier problem comes if the data has a complete month missing. I want to do this mean computation for each month. If there is no data, then the mean itself is missing too!

In this case, I will look across years for that month and impute the mean from the mean of the other means! (I am assuming that a month, say January, will have similar weather over the years.)

Now weve reached a problem where we need to deal with dates. Recall that in the data description the DATE attribute is the end date. However, we run into the problem for edge cases where the measurement is taken at 12AM.

Ideally, we would want this rain data to count for the data before. (The rain happened and then the results were in once the clocked turned 12AM). Below we can see that this case indeed exists in our data.

rain_tidy %>%
  filter(hour(DATE) == 0) %>%
  select(STATION, DATE, HPCP, `Measurement Flag`)

## # A tibble: 601 x 4
##    STATION     DATE                 HPCP `Measurement Flag`
##    <chr>       <dttm>              <dbl> <chr>             
##  1 COOP:180465 2008-01-11 00:00:00  0.51 <NA>              
##  2 COOP:180465 2008-01-18 00:00:00  0.25 <NA>              
##  3 COOP:180465 2008-02-13 00:00:00  0.25 <NA>              
##  4 COOP:180465 2008-03-05 00:00:00  0.51 <NA>              
##  5 COOP:180465 2008-03-20 00:00:00  1.78 <NA>              
##  6 COOP:180465 2008-04-04 00:00:00  0.51 <NA>              
##  7 COOP:180465 2008-04-14 00:00:00  0.51 <NA>              
##  8 COOP:180465 2008-04-27 00:00:00  1.52 <NA>              
##  9 COOP:180465 2008-04-28 00:00:00  0.25 <NA>              
## 10 COOP:180465 2008-05-09 00:00:00  7.87 <NA>              
## #  with 591 more rows
…
Wow, thats quite a lot of stations with entire months of missing data!

Now I will compute the mean across all months for each station. I know there are 7 stations, 12 months in a year. So I expect 7 * 12 = 84 rows.

mean_df <- rain_tidy %>%
  filter(not_missing) %>%
  group_by(STATION, month(start_date)) %>%
  summarize(avg = mean(HPCP)) %>%
  rename(month = `month(start_date)`)

mean_df

## # A tibble: 84 x 3
## # Groups:   STATION [7]
##    STATION     month   avg
##    <chr>       <dbl> <dbl>
##  1 COOP:180015     1  2.83
##  2 COOP:180015     2  2.54
##  3 COOP:180015     3  2.78
##  4 COOP:180015     4  3.81
##  5 COOP:180015     5  3.51
##  6 COOP:180015     6  4.99
##  7 COOP:180015     7  5.20
##  8 COOP:180015     8  9.03
##  9 COOP:180015     9  4.39
## 10 COOP:180015    10  3.84
## #  with 74 more rows
…
7 * 12 * 6 = 504! So I expect 504 rows once we are done.

Lets first construct a table with all the combinations. This will be the skeleton and tell use which values are implicitly missing

station_ids <- rain_tidy %>% distinct(STATION)
month_span <- seq(from = 1, to = 12)
year_span <- seq(from = 2008, to = 2013)

rain_final <- crossing(station_ids, month_span, year_span) %>%
  rename(month = month_span, year = year_span)

rain_final

## # A tibble: 504 x 3
##    STATION     month  year
##    <chr>       <int> <int>
##  1 COOP:180465     1  2008
##  2 COOP:180465     1  2009
##  3 COOP:180465     1  2010
##  4 COOP:180465     1  2011
##  5 COOP:180465     1  2012
##  6 COOP:180465     1  2013
##  7 COOP:180465     2  2008
##  8 COOP:180465     2  2009
##  9 COOP:180465     2  2010
## 10 COOP:180465     2  2011
## #  with 494 more rows

Now lets compute what would have been our final table.

final_with_missing <- rain_tidy %>%
  filter(not_missing) %>%
  group_by(STATION, year(start_date), month(start_date)) %>%
  summarize(avg = mean(HPCP)) %>%
  rename(year = `year(start_date)`, month = `month(start_date)`)

final_with_missing

## # A tibble: 305 x 4
## # Groups:   STATION, year [35]
##    STATION      year month   avg
##    <chr>       <dbl> <dbl> <dbl>
##  1 COOP:180015  2008     5  3.32
##  2 COOP:180015  2008     6  3.81
##  3 COOP:180015  2008     7  5.41
##  4 COOP:180015  2008     8  3.67
##  5 COOP:180015  2008     9  5.17
##  6 COOP:180015  2008    10  2.72
##  7 COOP:180015  2008    11  3.29
##  8 COOP:180015  2008    12  2.94
##  9 COOP:180015  2009     1  2.83
## 10 COOP:180015  2009     2  2.54
## #  with 295 more rows
The code above computes the monthly mean (average) precipitation for the hours that rained for each station.

As you can see, there are only 305 rows! That is so much less than 504! We are missing much data. However, I am in too deep and we press forward.

There would be no way to tell which combinations were missing had we not generated the skeleton. Below I perform a left join to make the implicitly missing data, explicit.

rain_final <- rain_final %>%
  left_join(final_with_missing,
            by=c("STATION" = "STATION",
                 "year" = "year",
                 "month" = "month"))

rain_final

## # A tibble: 504 x 4
##    STATION     month  year    avg
##    <chr>       <dbl> <dbl>  <dbl>
##  1 COOP:180465     1  2008  0.81 
##  2 COOP:180465     1  2009  1.12 
##  3 COOP:180465     1  2010  1.02 
##  4 COOP:180465     1  2011  1.47 
##  5 COOP:180465     1  2012 NA    
##  6 COOP:180465     1  2013  1.51 
##  7 COOP:180465     2  2008  1.44 
##  8 COOP:180465     2  2009  0.505
##  9 COOP:180465     2  2010  1.44 
## 10 COOP:180465     2  2011  1.34 
## #  with 494 more rows
…
map

This distribution looks good! It seems we are covering many of the waters in Maryland.

One thing I noticed that was peculiar was that just a few stations were at the same. It was very subtle but Im glad I caught it! I investigate this below.

ortho_df %>%
  distinct(`Location 1`, `Station ID`) %>%
  group_by(`Location 1`) %>%
  summarize(count = n()) %>%
  arrange(desc(count))

## # A tibble: 261 x 2
##    `Location 1`                        count
##    <chr>                               <int>
##  1 "MARYLAND\n(38.583333, -77.157778)"     4
##  2 "MARYLAND\n(39.359167, -76.370556)"     3
##  3 "MARYLAND\n(37.966389, -76.018333)"     1
##  4 "MARYLAND\n(37.970278, -75.858333)"     1
##  5 "MARYLAND\n(37.989167, -76.041389)"     1
##  6 "MARYLAND\n(38.0625, -76.3325)"         1
##  7 "MARYLAND\n(38.083333, -75.583333)"     1
##  8 "MARYLAND\n(38.09, -75.42)"             1
##  9 "MARYLAND\n(38.094167, -75.799444)"     1
## 10 "MARYLAND\n(38.149722, -76.439167)"     1
## #  with 251 more rows
…
